Wall time,Step,Value
1484128409.291729,3,0.1796875
1484128409.411664,5,0.1640625
1484128409.591161,8,0.15625
1484128409.649223,9,0.1796875
1484128409.844547,12,0.1328125
1484128410.136941,17,0.0546875
1484128410.255374,19,0.2265625
1484128410.66385,21,0.1796875
1484128410.846733,24,0.2265625
1484128410.905908,25,0.171875
1484128411.01995,27,0.296875
1484128411.137201,29,0.1171875
1484128411.436581,34,0.1875
1484128411.497389,35,0.1875
1484128411.55871,36,0.140625
1484128411.618319,37,0.1015625
1484128411.676897,38,0.1328125
1484128411.794357,40,0.125
1484128412.237692,41,0.1015625
1484128412.297459,42,0.125
1484128412.477131,45,0.109375
1484128412.535573,46,0.09375
1484128412.656879,48,0.109375
1484128412.715016,49,0.03125
1484128412.852357,51,0.0703125
1484128412.966845,53,0.0703125
1484128413.027345,54,0.109375
1484128413.145114,56,0.21875
1484128413.202532,57,0.203125
1484128413.262962,58,0.1640625
1484128413.321174,59,0.2421875
1484128414.209066,70,0.109375
1484128414.265547,71,0.1484375
1484128414.384129,73,0.234375
1484128414.664251,77,0.1796875
1484128415.151606,81,0.109375
1484128415.21064,82,0.2890625
1484128415.268796,83,0.3984375
1484128415.509119,87,0.40625
1484128415.715332,90,0.2734375
1484128415.773091,91,0.1875
1484128416.010861,95,0.0859375
1484128416.188036,98,0.25
1484128416.574693,101,0.1171875
1484128416.633824,102,0.1875
1484128416.812911,105,0.2265625
1484128416.873867,106,0.1875
1484128416.93346,107,0.125
1484128417.006478,108,0.1484375
1484128417.3893,114,0.0703125
1484128417.50833,116,0.125
1484128418.0785,122,0.28125
1484128418.138098,123,0.203125
1484128418.209499,124,0.2109375
1484128418.327459,126,0.21875
1484128418.506058,129,0.1953125
1484128418.685808,132,0.265625
1484128418.745052,133,0.234375
1484128418.86313,135,0.25
1484128419.037484,138,0.28125
1484128419.096116,139,0.21875
1484128419.153374,140,0.2578125
1484128419.489199,142,0.3046875
1484128419.732396,146,0.2734375
1484128419.792093,147,0.296875
1484128420.454228,155,0.2421875
1484128420.699392,159,0.28125
1484128420.757545,160,0.2890625
1484128421.041253,161,0.2734375
1484128421.336748,166,0.296875
1484128421.393764,167,0.2421875
1484128421.583459,170,0.2421875
1484128421.8183,174,0.234375
1484128421.877053,175,0.2734375
1484128421.93519,176,0.2890625
1484128422.174133,180,0.1953125
1484128422.446765,181,0.2109375
1484128422.50609,182,0.296875
1484128422.62306,184,0.2421875
1484128422.683747,185,0.21875
1484128422.743055,186,0.25
1484128422.802889,187,0.21875
1484128422.861061,188,0.203125
1484128422.919207,189,0.1796875
1484128423.094424,192,0.2421875
1484128423.157425,193,0.234375
1484128423.217415,194,0.203125
1484128423.452537,198,0.203125
1484128423.510154,199,0.21875
1484128423.571665,200,0.2734375
1484128423.845507,201,0.171875
1484128424.022131,204,0.1796875
1484128424.081985,205,0.2578125
1484128424.213707,207,0.328125
1484128424.389402,210,0.203125
1484128424.445591,211,0.1328125
1484128424.688068,215,0.234375
1484128424.861059,218,0.2421875
1484128424.920439,219,0.328125
1484128424.976868,220,0.2265625
1484128425.255414,221,0.2734375
1484128425.315031,222,0.25
1484128425.373157,223,0.3203125
1484128425.431728,224,0.3515625
1484128425.620358,227,0.21875
1484128425.738305,229,0.1640625
1484128425.797501,230,0.234375
1484128425.973372,233,0.2578125
1484128426.090397,235,0.1796875
1484128426.150242,236,0.25
1484128426.21045,237,0.265625
1484128426.268463,238,0.28125
1484128426.660634,241,0.2578125
1484128426.71929,242,0.28125
1484128426.895501,245,0.2421875
1484128427.030645,247,0.2421875
1484128427.275741,251,0.21875
1484128427.393675,253,0.1484375
1484128427.8017,260,0.1875
1484128428.130061,262,0.28125
1484128428.247242,264,0.1796875
1484128428.831537,274,0.296875
1484128428.891594,275,0.2578125
1484128429.008229,277,0.2109375
1484128429.066666,278,0.328125
1484128429.182192,280,0.265625
1484128429.452604,281,0.2421875
1484128429.632997,284,0.1875
1484128429.692547,285,0.3046875
1484128429.814382,287,0.21875
1484128429.871765,288,0.2578125
1484128430.045055,291,0.3125
1484128430.104632,292,0.3125
1484128430.164476,293,0.265625
1484128430.221738,294,0.28125
1484128430.279504,295,0.3359375
1484128430.337914,296,0.25
1484128430.395781,297,0.203125
1484128430.453045,298,0.1953125
1484128430.51139,299,0.2578125
1484128430.569908,300,0.28125
1484128430.898785,302,0.265625
1484128431.015472,304,0.3203125
1484128431.364489,310,0.28125
1484128431.481117,312,0.1640625
1484128431.539989,313,0.3046875
1484128431.597257,314,0.3046875
1484128431.715644,316,0.2421875
1484128431.88997,319,0.2890625
1484128432.290256,322,0.3203125
1484128432.466254,325,0.2265625
1484128432.641517,328,0.3125
1484128432.759774,330,0.3515625
1484128432.817535,331,0.3046875
1484128432.990909,334,0.2734375
1484128433.048969,335,0.3125
1484128433.224327,338,0.296875
1484128433.283869,339,0.328125
1484128433.342386,340,0.28125
1484128433.608095,341,0.2578125
1484128433.665759,342,0.40625
1484128433.723204,343,0.328125
1484128433.782544,344,0.3828125
1484128433.840388,345,0.3125
1484128433.955602,347,0.234375
1484128434.013235,348,0.2734375
1484128434.1303,350,0.28125
1484128434.360862,354,0.2265625
1484128434.481182,356,0.28125
1484128434.540451,357,0.3515625
1484128434.65717,359,0.34375
1484128434.7207,360,0.265625
1484128435.047815,362,0.390625
1484128435.163037,364,0.296875
1484128435.292485,366,0.2578125
1484128435.350746,367,0.2734375
1484128435.409263,368,0.40625
1484128435.467877,369,0.375
1484128435.583342,371,0.34375
1484128435.820365,375,0.3203125
1484128436.057303,379,0.328125
1484128436.117808,380,0.28125
1484128436.469061,382,0.390625
1484128436.52795,383,0.3515625
1484128436.58543,384,0.34375
1484128436.642572,385,0.3515625
1484128436.700573,386,0.3984375
1484128436.756774,387,0.34375
1484128437.045653,392,0.359375
1484128437.161851,394,0.3359375
1484128437.338496,397,0.3828125
1484128437.411255,398,0.3203125
1484128437.528124,400,0.390625
1484128437.796568,401,0.34375
1484128437.854315,402,0.3359375
1484128437.987748,404,0.390625
1484128438.047127,405,0.3984375
1484128438.105295,406,0.34375
1484128438.279725,409,0.4375
1484128438.399095,411,0.4921875
1484128438.633844,415,0.4765625
1484128438.692185,416,0.4296875
1484128438.807903,418,0.515625
1484128439.254235,422,0.46875
1484128439.380882,424,0.4921875
1484128439.437232,425,0.578125
1484128439.494155,426,0.609375
1484128439.666351,429,0.4609375
1484128439.782722,431,0.484375
1484128439.897331,433,0.4609375
1484128439.953826,434,0.4375
1484128440.013379,435,0.578125
1484128440.072908,436,0.5078125
1484128440.190247,438,0.4453125
1484128440.307652,440,0.6015625
1484128440.689696,443,0.5390625
1484128440.746927,444,0.546875
1484128440.863249,446,0.53125
1484128440.922749,447,0.5390625
1484128441.048198,449,0.5703125
1484128441.222541,452,0.53125
1484128441.337991,454,0.546875
1484128441.393363,455,0.59375
1484128441.454564,456,0.5546875
1484128441.513972,457,0.5546875
1484128441.709496,460,0.6015625
1484128442.207617,465,0.625
1484128442.264683,466,0.6796875
1484128442.320549,467,0.7265625
1484128442.552121,471,0.6484375
1484128442.608465,472,0.65625
1484128442.666519,473,0.6484375
1484128442.84836,476,0.703125
1484128442.904942,477,0.7109375
1484128442.962177,478,0.75
1484128443.359502,481,0.5859375
1484128443.418582,482,0.6015625
1484128443.475022,483,0.703125
1484128443.652191,486,0.671875
1484128443.709069,487,0.7578125
1484128443.768494,488,0.8046875
1484128443.884194,490,0.734375
1484128443.999827,492,0.71875
1484128444.060493,493,0.828125
1484128444.231156,496,0.8203125
1484128444.347653,498,0.75
1484128444.405678,499,0.8359375
1484128444.462492,500,0.78125
1484128444.845776,503,0.7421875
1484128444.917663,504,0.7890625
1484128445.033467,506,0.7265625
1484128445.237088,509,0.7890625
1484128445.421991,512,0.7890625
1484128445.47948,513,0.78125
1484128445.537848,514,0.8125
1484128445.714376,517,0.7265625
1484128445.771386,518,0.7578125
1484128445.828452,519,0.7734375
1484128445.886549,520,0.8671875
1484128446.154479,521,0.7890625
1484128446.213525,522,0.796875
1484128446.28064,523,0.75
1484128446.340033,524,0.7734375
1484128446.398434,525,0.6640625
1484128446.694356,530,0.6875
1484128446.752685,531,0.7265625
1484128446.927048,534,0.8203125
1484128447.042111,536,0.7734375
1484128447.215707,539,0.8203125
1484128447.540379,541,0.75
1484128447.658668,543,0.7578125
1484128447.829545,546,0.8203125
1484128447.959359,548,0.859375
1484128448.02987,549,0.78125
1484128448.120718,550,0.765625
1484128448.183913,551,0.765625
1484128448.240904,552,0.765625
1484128448.301184,553,0.8125
1484128448.489442,556,0.78125
1484128448.603154,558,0.8359375
1484128448.662151,559,0.78125
1484128449.060319,562,0.84375
1484128449.118653,563,0.828125
1484128449.28931,566,0.796875
1484128449.578792,571,0.859375
1484128449.694906,573,0.78125
1484128449.867252,576,0.7578125
1484128449.926847,577,0.75
1484128450.043109,579,0.7421875
1484128450.102256,580,0.859375
1484128450.371369,581,0.7578125
1484128450.605958,585,0.8515625
1484128450.664512,586,0.84375
1484128450.781149,588,0.875
1484128450.955508,591,0.8515625
1484128451.014655,592,0.90625
1484128451.13214,594,0.890625
1484128451.323231,597,0.875
1484128451.382031,598,0.8515625
1484128451.440165,599,0.7734375
1484128451.762925,601,0.890625
1484128451.822063,602,0.7734375
1484128451.937102,604,0.859375
1484128451.994839,605,0.8125
1484128452.053196,606,0.8984375
1484128452.110662,607,0.890625
1484128452.350051,611,0.8125
1484128452.408943,612,0.8671875
1484128452.524151,614,0.828125
1484128452.581641,615,0.84375
1484128453.195125,622,0.890625
1484128453.48296,627,0.875
1484128453.538034,628,0.828125
1484128453.657732,630,0.8359375
1484128453.94487,635,0.8203125
1484128454.061055,637,0.890625
1484128454.177685,639,0.8984375
1484128454.495913,641,0.859375
1484128454.611057,643,0.890625
1484128454.670577,644,0.875
1484128454.843189,647,0.765625
1484128454.959356,649,0.8046875
1484128455.077981,651,0.875
1484128455.252316,654,0.875
1484128455.310498,655,0.8984375
1484128455.432672,657,0.84375
1484128455.56084,659,0.84375
1484128455.618191,660,0.90625
1484128455.961015,662,0.875
1484128456.051183,663,0.8671875
1484128456.136027,664,0.8828125
1484128456.251678,666,0.84375
1484128456.368271,668,0.8046875
1484128456.425906,669,0.8203125
1484128456.484922,670,0.8125
1484128456.542149,671,0.828125
1484128456.829467,676,0.8359375
1484128457.004459,679,0.8828125
1484128457.379462,682,0.9296875
1484128457.492278,684,0.8515625
1484128457.548094,685,0.890625
1484128457.664786,687,0.9296875
1484128457.7801,689,0.8984375
1484128457.837773,690,0.8828125
1484128457.89727,691,0.921875
1484128458.075877,694,0.9375
1484128458.142162,695,0.9140625
1484128458.198592,696,0.90625
1484128458.256733,697,0.953125
1484128458.312836,698,0.890625
1484128458.428987,700,0.859375
1484128458.863775,704,0.9140625
1484128458.922997,705,0.9140625
1484128459.039052,707,0.9375
1484128459.0966,708,0.890625
1484128459.157447,709,0.9375
1484128459.239807,710,0.9296875
1484128459.471111,714,0.9296875
1484128459.664713,717,0.8984375
1484128460.103489,721,0.8984375
1484128460.219039,723,0.9296875
1484128460.27545,724,0.84375
1484128460.336162,725,0.84375
1484128460.400623,726,0.9375
1484128460.457015,727,0.875
1484128460.571355,729,0.9296875
1484128460.687527,731,0.9296875
1484128460.804027,733,0.8828125
1484128460.885776,734,0.9375
1484128461.061121,737,0.8984375
1484128461.117488,738,0.953125
1484128461.243803,740,0.8828125
1484128461.506565,741,0.875
1484128461.563764,742,0.9140625
1484128461.67812,744,0.84375
1484128461.73715,745,0.90625
1484128461.795212,746,0.875
1484128462.084372,751,0.84375
1484128462.259497,754,0.90625
1484128462.375174,756,0.8515625
1484128462.490692,758,0.9140625
1484128462.606031,760,0.890625
1484128462.94728,762,0.875
1484128463.061842,764,0.8984375
1484128463.237433,767,0.8984375
1484128463.292542,768,0.9453125
1484128463.408786,770,0.9609375
1484128463.52556,772,0.9296875
1484128463.813949,777,0.8671875
1484128464.333192,782,0.8828125
1484128464.506675,785,0.8828125
1484128464.738283,789,0.9296875
1484128464.795149,790,0.9296875
1484128464.985239,793,0.9375
1484128465.286376,798,0.9140625
1484128465.344616,799,0.9140625
1484128465.783106,803,0.9140625
1484128465.867233,804,0.90625
1484128466.154179,809,0.9296875
1484128466.209905,810,0.9375
1484128466.438962,814,0.96875
1484128466.495728,815,0.9453125
1484128466.721999,819,0.9375
1484128467.043586,821,0.875
1484128467.100625,822,0.96875
1484128467.158606,823,0.921875
1484128467.338712,826,0.953125
1484128467.396243,827,0.9375
1484128467.453304,828,0.921875
1484128467.510462,829,0.8984375
1484128467.627442,831,0.921875
1484128467.742132,833,0.9375
1484128467.857758,835,0.9453125
1484128467.914035,836,0.953125
1484128468.406444,841,0.8984375
1484128468.523739,843,0.9140625
1484128468.695556,846,0.921875
1484128468.808932,848,0.96875
1484128468.867846,849,0.953125
1484128468.924848,850,0.9453125
1484128469.09519,853,0.890625
1484128469.151938,854,0.8984375
1484128469.210939,855,0.890625
1484128469.26815,856,0.9453125
1484128469.380687,858,0.953125
1484128469.438993,859,0.9375
1484128469.496077,860,0.921875
1484128469.872118,863,0.9296875
1484128469.987571,865,0.9609375
1484128470.056062,866,0.921875
1484128470.114062,867,0.953125
1484128470.170632,868,0.9765625
1484128470.226741,869,0.9296875
1484128470.285036,870,0.9453125
1484128470.343813,871,0.921875
1484128470.467844,873,0.9375
1484128470.524624,874,0.953125
1484128470.641389,876,0.921875
1484128470.698122,877,0.96875
1484128470.75623,878,0.9453125
1484128470.870243,880,0.9140625
1484128471.282252,883,0.9453125
1484128471.337199,884,0.9765625
1484128471.453386,886,0.9375
1484128471.566846,888,0.953125
1484128471.681579,890,1.0
1484128471.739798,891,0.984375
1484128471.968059,895,0.9453125
1484128472.19955,899,0.9609375
1484128472.254888,900,0.9765625
1484128472.516343,901,0.9765625
1484128472.574411,902,0.9375
1484128472.689609,904,0.96875
1484128473.208621,913,0.96875
1484128473.266558,914,0.9609375
1484128473.43657,917,0.9453125
1484128473.551647,919,0.9375
1484128473.608734,920,0.9609375
1484128473.866043,921,0.9765625
1484128473.921751,922,0.96875
1484128473.980032,923,0.953125
1484128474.210821,927,0.9140625
1484128474.341614,929,0.890625
1484128474.397359,930,0.953125
1484128474.453407,931,0.9375
1484128474.510239,932,0.9296875
1484128474.623252,934,0.9375
1484128474.738383,936,0.9765625
1484128474.966247,940,0.984375
1484128475.390502,942,0.953125
1484128475.572388,945,0.96875
1484128475.630356,946,0.9453125
1484128475.687582,947,0.984375
1484128475.91966,951,0.96875
1484128476.145465,955,0.96875
1484128476.691588,961,0.96875
1484128476.747579,962,0.9765625
1484128476.802596,963,0.9296875
1484128476.916532,965,0.9921875
1484128477.040201,967,0.953125
1484128477.212729,970,0.9375
1484128477.460423,974,0.984375
1484128477.57413,976,0.9375
1484128477.630731,977,0.984375
1484128477.689173,978,0.9609375
1484128477.745753,979,0.953125
1484128478.12236,982,0.9453125
1484128478.180585,983,0.9609375
1484128478.236094,984,0.9765625
1484128478.407851,987,0.9765625
1484128478.609291,990,0.9765625
1484128478.664442,991,0.9765625
1484128478.833198,994,0.96875
1484128478.891519,995,0.9453125
1484128479.560561,1003,0.984375
1484128479.61786,1004,0.984375
1484128479.674271,1005,0.9921875
1484128479.731719,1006,0.9765625
1484128479.845663,1008,0.96875
1484128479.959179,1010,0.9375
1484128480.016846,1011,0.96875
1484128480.076278,1012,0.9609375
1484128480.866417,1022,0.953125
1484128481.036428,1025,0.953125
1484128481.092549,1026,0.953125
1484128481.439288,1032,0.953125
1484128481.49561,1033,1.0
1484128481.667645,1036,0.96875
1484128481.723957,1037,0.96875
1484128481.896606,1040,0.9921875
1484128482.155046,1041,0.9609375
1484128482.271284,1043,0.96875
1484128482.384365,1045,0.9609375
1484128482.438754,1046,0.96875
1484128482.722832,1051,0.96875
1484128482.77872,1052,0.9765625
1484128482.835766,1053,0.953125
1484128482.895101,1054,0.953125
1484128482.950153,1055,0.9765625
1484128483.008715,1056,1.0
1484128483.064983,1057,0.984375
1484128483.123393,1058,0.9765625
1484128483.238937,1060,0.953125
1484128483.555004,1062,0.96875
1484128483.610712,1063,0.9765625
1484128483.667019,1064,0.9609375
1484128483.724672,1065,0.9765625
1484128483.956639,1069,0.96875
1484128484.013243,1070,0.9609375
1484128484.074401,1071,0.9921875
1484128484.132712,1072,0.9609375
1484128484.189662,1073,0.953125
1484128484.303283,1075,0.9765625
1484128484.865338,1081,0.96875
1484128485.034312,1084,0.9765625
1484128485.092022,1085,0.9765625
1484128485.152166,1086,1.0
1484128485.210754,1087,0.953125
1484128485.267593,1088,1.0
1484128485.380612,1090,0.984375
1484128485.725627,1096,0.96875
1484128485.841713,1098,1.0
1484128485.896608,1099,0.9765625
1484128486.326453,1103,0.953125
1484128486.495155,1106,0.9921875
1484128486.609012,1108,0.9609375
1484128486.664419,1109,0.984375
1484128486.945122,1114,0.953125
1484128487.003362,1115,0.96875
1484128487.061268,1116,0.96875
1484128487.175298,1118,0.9453125
1484128487.231912,1119,0.9609375
1484128487.556824,1121,0.984375
1484128487.679967,1123,0.96875
1484128488.042535,1129,0.96875
1484128488.154448,1131,0.96875
1484128488.296891,1133,0.9765625
1484128488.492887,1136,0.9921875
1484128488.662451,1139,0.9921875
1484128488.974217,1141,0.9765625
1484128489.086751,1143,0.9765625
1484128489.14387,1144,0.9609375
1484128489.257983,1146,1.0
1484128489.368752,1148,1.0
1484128489.540545,1151,0.9765625
1484128489.598142,1152,0.984375
1484128489.654297,1153,0.96875
1484128489.709786,1154,0.9609375
1484128489.766708,1155,0.9765625
1484128489.823397,1156,1.0
1484128489.880773,1157,0.9609375
1484128489.937654,1158,0.96875
1484128490.050911,1160,0.9765625
1484128490.487632,1164,0.984375
1484128490.555709,1165,0.96875
1484128490.611117,1166,0.984375
1484128490.668576,1167,0.9765625
1484128490.725738,1168,0.9921875
1484128490.781554,1169,0.9921875
1484128490.83809,1170,0.953125
1484128490.894982,1171,0.9765625
1484128490.950639,1172,0.9921875
1484128491.017272,1173,0.984375
1484128491.130771,1175,0.96875
1484128491.185989,1176,0.9921875
1484128491.241797,1177,0.9765625
1484128491.681401,1181,0.9609375
1484128491.795612,1183,0.9765625
1484128491.852204,1184,0.9609375
1484128491.906867,1185,0.9765625
1484128492.017299,1187,0.9765625
1484128492.186261,1190,0.984375
1484128492.409567,1194,0.984375
1484128492.521728,1196,0.9765625
1484128492.744989,1200,1.0
1484128493.001499,1201,0.984375
1484128493.057731,1202,0.96875
1484128493.170947,1204,0.984375
1484128493.226792,1205,0.9765625
1484128493.45104,1209,0.984375
1484128493.50916,1210,0.984375
1484128493.627775,1212,0.9921875
1484128493.684197,1213,0.984375
1484128493.797387,1215,0.984375
1484128493.853462,1216,0.984375
1484128494.077947,1220,0.9921875
1484128494.336251,1221,0.953125
1484128494.390089,1222,0.9921875
1484128494.446269,1223,0.9921875
1484128494.501734,1224,0.9765625
1484128494.624205,1226,1.0
1484128495.019699,1233,0.9375
1484128495.240276,1237,0.984375
1484128495.353832,1239,0.9609375
1484128495.66809,1241,0.9921875
1484128495.723049,1242,0.984375
1484128495.779163,1243,0.9921875
1484128496.00701,1247,0.984375
1484128496.063475,1248,0.984375
1484128496.120767,1249,1.0
1484128496.185828,1250,0.9609375
1484128496.41217,1254,0.984375
1484128496.467199,1255,0.96875
1484128496.598444,1257,0.96875
1484128496.655285,1258,0.984375
1484128497.020747,1261,1.0
1484128497.076792,1262,0.9765625
1484128497.188002,1264,0.9921875
1484128497.30658,1266,0.9921875
1484128497.361528,1267,0.984375
1484128497.473532,1269,1.0
1484128497.657996,1272,0.9921875
1484128497.741921,1273,0.984375
1484128497.853854,1275,0.9765625
1484128497.910216,1276,0.9609375
1484128498.082156,1279,0.9765625
1484128498.139267,1280,0.984375
1484128498.394099,1281,0.9921875
1484128498.563971,1284,0.984375
1484128498.620285,1285,0.9765625
1484128498.730677,1287,0.9921875
1484128498.787116,1288,0.984375
1484128499.23399,1296,0.984375
1484128499.714644,1301,0.9765625
1484128499.770092,1302,0.9921875
1484128499.883117,1304,0.9765625
1484128500.058763,1307,0.9921875
1484128500.166173,1309,1.0
1484128500.226335,1310,1.0
1484128500.339251,1312,0.984375
1484128500.394554,1313,0.9453125
1484128500.449544,1314,0.984375
1484128500.561003,1316,0.984375
1484128500.618617,1317,0.9921875
1484128501.037658,1321,0.9921875
1484128501.094123,1322,0.984375
1484128501.147752,1323,0.9765625
1484128501.26142,1325,0.9921875
1484128501.372848,1327,1.0
1484128501.439689,1328,0.9921875
1484128501.607088,1331,0.9921875
1484128501.662875,1332,0.9921875
1484128501.828579,1335,0.984375
1484128501.88519,1336,0.984375
1484128501.940742,1337,0.9921875
1484128502.049354,1339,0.9765625
1484128502.415419,1342,0.9921875
1484128502.526242,1344,0.9921875
1484128502.747264,1348,0.984375
1484128502.804316,1349,1.0
1484128502.91598,1351,0.9765625
1484128503.02424,1353,1.0
1484128503.081624,1354,0.9921875
1484128503.381815,1359,0.9765625
1484128503.852176,1364,0.9921875
1484128503.906509,1365,1.0
1484128504.016055,1367,0.984375
1484128504.072746,1368,1.0
1484128504.182994,1370,0.9921875
1484128504.351512,1373,0.984375
1484128504.463121,1375,0.9765625
1484128504.517535,1376,1.0
1484128504.738937,1380,0.984375
1484128505.060915,1382,0.9765625
1484128505.172228,1384,0.9921875
1484128505.499667,1390,0.9765625
1484128505.608773,1392,0.984375
1484128505.718743,1394,0.9921875
1484128506.306683,1401,0.984375
1484128506.361384,1402,0.9765625
1484128506.416248,1403,0.9921875
1484128506.470779,1404,0.9921875
1484128506.69456,1408,0.96875
1484128506.749147,1409,1.0
1484128506.917556,1412,0.984375
1484128506.987801,1413,1.0
1484128507.04259,1414,0.9921875
1484128507.154345,1416,0.9765625
1484128507.209085,1417,0.9921875
1484128507.265037,1418,0.984375
1484128507.321414,1419,0.984375
1484128507.68906,1422,0.9921875
1484128507.744638,1423,0.9765625
1484128507.856162,1425,1.0
1484128507.912104,1426,0.984375
1484128508.023157,1428,0.984375
1484128508.07975,1429,0.984375
1484128508.245364,1432,0.984375
1484128508.357218,1434,0.984375
1484128508.412601,1435,0.9921875
1484128508.636131,1439,0.984375
1484128508.996135,1442,0.9921875
1484128509.050628,1443,1.0
1484128509.105205,1444,0.9921875
1484128509.216986,1446,0.96875
1484128509.272253,1447,1.0
1484128509.655652,1454,0.9765625
1484128509.877059,1458,0.984375
1484128509.987765,1460,0.9921875
1484128510.296961,1462,0.984375
1484128510.407387,1464,0.9765625
1484128510.462113,1465,1.0
1484128510.574522,1467,0.984375
1484128510.739168,1470,1.0
1484128510.824383,1471,0.9921875
1484128510.879597,1472,0.9921875
1484128510.935962,1473,0.9921875
1484128511.214573,1478,0.9921875
1484128511.270898,1479,1.0
1484128511.33582,1480,0.9921875
1484128511.591111,1481,0.9765625
1484128511.814048,1485,1.0
1484128511.8697,1486,0.984375
1484128512.035611,1489,1.0
1484128512.090654,1490,0.9921875
1484128512.20441,1492,0.984375
1484128512.536183,1498,1.0
1484128512.591699,1499,0.9765625
1484128512.646254,1500,1.0
1484128513.065313,1504,0.9921875
1484128513.233483,1507,1.0
1484128513.466313,1511,1.0
1484128513.52303,1512,0.9921875
1484128513.578175,1513,1.0
1484128513.634511,1514,0.9765625
1484128513.801858,1517,1.0
1484128513.857304,1518,0.9921875
1484128513.990619,1520,0.9921875
1484128514.298101,1522,0.96875
1484128514.624652,1528,0.9921875
1484128514.735228,1530,0.984375
1484128514.78975,1531,0.984375
1484128514.844483,1532,0.9921875
1484128515.064664,1536,0.9765625
1484128515.119753,1537,1.0
1484128515.228539,1539,1.0
1484128515.535944,1541,1.0
1484128515.591887,1542,0.9765625
1484128515.647056,1543,0.9921875
1484128515.701314,1544,0.9921875
1484128515.756062,1545,0.9921875
1484128515.812009,1546,0.984375
1484128515.868011,1547,0.9921875
1484128515.978241,1549,0.9921875
1484128516.033479,1550,0.984375
1484128516.256372,1554,0.96875
1484128516.370205,1556,0.9921875
1484128516.479136,1558,1.0
1484128516.588947,1560,0.984375
1484128516.841139,1561,1.0
1484128516.896994,1562,0.9921875
1484128517.117501,1566,0.984375
1484128517.337353,1570,0.9921875
1484128517.554742,1574,0.984375
1484128517.610842,1575,0.984375
1484128517.730058,1577,1.0
1484128517.785292,1578,1.0
1484128517.895925,1580,1.0
1484128518.147557,1581,0.96875
1484128518.202256,1582,0.984375
1484128518.312191,1584,0.9921875
1484128518.367396,1585,1.0
1484128518.437044,1586,1.0
1484128518.600604,1589,1.0
1484128518.768186,1592,0.9765625
1484128518.960734,1595,1.0
1484128519.072914,1597,0.984375
1484128519.180319,1599,0.9921875
1484128519.487465,1601,0.9765625
1484128519.542393,1602,0.984375
1484128519.597924,1603,0.9921875
1484128519.651631,1604,0.9921875
1484128519.763149,1606,0.9921875
1484128519.817713,1607,0.9921875
1484128519.872543,1608,1.0
1484128520.037899,1611,0.984375
1484128520.092652,1612,1.0
1484128520.204247,1614,0.9921875
1484128520.258233,1615,0.9921875
1484128520.312915,1616,1.0
1484128520.366255,1617,0.984375
1484128520.475822,1619,0.9921875
1484128520.531801,1620,0.9921875
1484128520.78372,1621,0.9921875
1484128520.83869,1622,0.9921875
1484128520.893021,1623,0.9921875
1484128521.00273,1625,0.9921875
1484128521.05939,1626,0.984375
1484128521.167718,1628,1.0
1484128521.330913,1631,0.984375
1484128521.392277,1632,1.0
1484128521.501924,1634,1.0
1484128521.610324,1636,1.0
1484128521.664585,1637,1.0
1484128521.720407,1638,0.984375
1484128521.831083,1640,0.984375
1484128522.083061,1641,0.984375
1484128522.136734,1642,0.984375
1484128522.191452,1643,0.984375
1484128522.301464,1645,0.9921875
1484128522.410385,1647,0.9609375
1484128522.464127,1648,0.9765625
1484128522.704706,1652,0.9921875
1484128522.759986,1653,0.9921875
1484128522.869288,1655,0.9921875
1484128522.949568,1656,0.984375
1484128523.004638,1657,0.984375
1484128523.478929,1662,1.0
1484128523.533131,1663,0.984375
1484128523.862345,1669,1.0
1484128523.972721,1671,0.9921875
1484128524.027545,1672,1.0
1484128524.082772,1673,1.0
1484128524.139088,1674,1.0
1484128524.19412,1675,0.9921875
1484128524.246977,1676,0.984375
1484128524.428165,1679,0.984375
1484128524.892687,1684,1.0
1484128525.026042,1686,0.9921875
1484128525.134935,1688,0.9921875
1484128525.191217,1689,1.0
1484128525.245493,1690,1.0
1484128525.354011,1692,1.0
1484128525.409517,1693,0.984375
1484128525.463751,1694,1.0
1484128525.573447,1696,0.984375
1484128525.62778,1697,0.9921875
1484128525.682446,1698,0.9921875
1484128525.790983,1700,0.9921875
1484128526.202983,1704,0.9921875
1484128526.366576,1707,1.0
1484128526.804064,1715,1.0
1484128526.979266,1718,0.984375
1484128527.033279,1719,1.0
1484128527.088008,1720,0.9921875
1484128527.339293,1721,0.9921875
1484128527.394597,1722,0.9765625
1484128527.726586,1728,1.0
1484128527.836516,1730,0.984375
1484128527.945595,1732,0.984375
1484128528.108859,1735,0.984375
1484128528.165108,1736,0.9921875
1484128528.219286,1737,0.9921875
1484128528.273041,1738,1.0
1484128528.328612,1739,1.0
1484128528.38252,1740,0.9921875
1484128528.634727,1741,1.0
1484128528.691052,1742,0.9921875
1484128528.745178,1743,1.0
1484128528.799046,1744,1.0
1484128528.961599,1747,1.0
1484128529.071172,1749,1.0
1484128529.124827,1750,1.0
1484128529.344502,1754,0.9921875
1484128529.399749,1755,0.9921875
1484128529.506647,1757,1.0
1484128529.669142,1760,0.9921875
1484128529.922444,1761,1.0
1484128529.975159,1762,1.0
1484128530.029997,1763,1.0
1484128530.141479,1765,1.0
1484128530.248247,1767,1.0
1484128530.303896,1768,0.9921875
1484128530.523592,1772,0.9921875
1484128530.580646,1773,0.9921875
1484128530.636152,1774,0.984375
1484128530.689475,1775,1.0
1484128530.852291,1778,0.9921875
1484128530.907578,1779,0.9921875
1484128530.961337,1780,0.9765625
1484128531.211723,1781,0.984375
1484128531.266514,1782,1.0
1484128531.321202,1783,0.9921875
1484128531.442785,1785,1.0
1484128531.573811,1787,0.984375
1484128531.628247,1788,0.9765625
1484128531.683869,1789,0.9921875
1484128531.7376,1790,0.984375
1484128531.848227,1792,1.0
1484128531.953726,1794,0.9921875
1484128532.008091,1795,0.984375
1484128532.22374,1799,0.9921875
1484128532.527264,1801,1.0
1484128532.665207,1803,0.9921875
1484128532.773787,1805,0.9765625
1484128532.993775,1809,1.0
1484128533.102821,1811,1.0
1484128533.157274,1812,1.0
1484128533.26576,1814,1.0
1484128533.376519,1816,1.0
1484128533.430817,1817,1.0
1484128533.593701,1820,0.9921875
1484128533.899862,1822,1.0
1484128533.955707,1823,0.9921875
1484128534.009783,1824,0.96875
1484128534.120135,1826,1.0
1484128534.175167,1827,1.0
1484128534.498847,1833,1.0
1484128534.727187,1837,1.0
1484128535.143694,1841,0.9921875
1484128535.252451,1843,0.9921875
1484128535.338552,1844,1.0
1484128535.422843,1845,1.0
1484128535.478354,1846,0.9921875
1484128535.532633,1847,0.9765625
1484128535.695826,1850,0.9765625
1484128535.804251,1852,1.0
1484128535.856882,1853,1.0
1484128535.96566,1855,0.9921875
1484128536.240819,1860,0.9921875
1484128536.498109,1861,1.0
1484128536.552358,1862,1.0
1484128536.716193,1865,0.9765625
1484128536.769762,1866,0.9921875
1484128536.9324,1869,0.9921875
1484128537.04123,1871,1.0
1484128537.261257,1875,1.0
1484128537.317393,1876,0.984375
1484128537.425323,1878,1.0
1484128537.479521,1879,1.0
1484128537.836128,1882,0.984375
1484128537.88863,1883,0.9921875
1484128537.997777,1885,1.0
1484128538.105368,1887,0.984375
1484128538.159326,1888,0.9921875
1484128538.214613,1889,1.0
1484128538.270677,1890,0.984375
1484128538.325912,1891,0.9921875
1484128538.488224,1894,1.0
1484128538.54194,1895,1.0
1484128538.596197,1896,0.984375
1484128538.811637,1900,1.0
1484128539.061257,1901,0.9921875
1484128539.168722,1903,0.9921875
1484128539.275895,1905,0.984375
1484128539.329423,1906,0.984375
1484128539.436564,1908,1.0
1484128539.543932,1910,0.9921875
1484128539.599303,1911,1.0
1484128539.777603,1914,1.0
1484128539.93802,1917,0.9921875
1484128540.09997,1920,1.0
1484128540.348884,1921,1.0
1484128540.56406,1925,0.984375
1484128540.617851,1926,0.984375
1484128540.726686,1928,1.0
1484128540.889771,1931,0.984375
1484128540.997257,1933,0.984375
1484128541.050825,1934,0.9921875
1484128541.103601,1935,0.9921875
1484128541.158267,1936,0.9921875
1484128541.212564,1937,0.9921875
1484128541.266717,1938,1.0
1484128541.372609,1940,1.0
1484128541.624341,1941,0.984375
1484128541.679079,1942,0.984375
1484128541.731221,1943,0.9921875
1484128541.784881,1944,1.0
1484128542.110102,1950,1.0
1484128542.221221,1952,1.0
1484128542.331595,1954,1.0
1484128542.394138,1955,0.9921875
1484128542.448775,1956,0.9921875
1484128542.568348,1958,0.9921875
1484128542.983958,1962,0.9921875
1484128543.093108,1964,1.0
1484128543.200416,1966,0.9921875
1484128543.359545,1969,1.0
1484128543.468596,1971,0.9765625
1484128543.793317,1977,0.9921875
1484128543.956571,1980,1.0
1484128544.258764,1982,0.9921875
1484128544.473968,1986,1.0
1484128544.581059,1988,0.9765625
1484128544.796488,1992,1.0
1484128544.854472,1993,1.0
1484128544.90798,1994,0.984375
1484128544.960347,1995,0.9921875
1484128545.121045,1998,1.0
1484128545.174919,1999,1.0
