Wall time,Step,Value
1484129548.881578,3,0.140625
1484129548.996768,5,0.0546875
1484129549.171533,8,0.0859375
1484129549.23001,9,0.046875
1484129549.404067,12,0.1015625
1484129549.692244,17,0.171875
1484129549.808939,19,0.1015625
1484129550.182364,21,0.109375
1484129550.35755,24,0.140625
1484129550.414427,25,0.109375
1484129550.532011,27,0.125
1484129550.648552,29,0.140625
1484129550.93982,34,0.1015625
1484129551.179886,35,0.09375
1484129551.23997,36,0.078125
1484129551.296231,37,0.0859375
1484129551.358746,38,0.1328125
1484129551.47412,40,0.09375
1484129551.75252,41,0.125
1484129551.810743,42,0.0703125
1484129551.983616,45,0.3046875
1484129552.04272,46,0.1328125
1484129552.159264,48,0.203125
1484129552.218191,49,0.1640625
1484129552.332889,51,0.1171875
1484129552.450582,53,0.1953125
1484129552.508457,54,0.265625
1484129552.622977,56,0.3359375
1484129552.68145,57,0.1328125
1484129552.740517,58,0.109375
1484129552.796517,59,0.1875
1484129553.6858,70,0.078125
1484129553.757509,71,0.125
1484129553.875959,73,0.125
1484129554.115157,77,0.1015625
1484129554.55826,81,0.1328125
1484129554.615832,82,0.109375
1484129554.674266,83,0.1015625
1484129554.908875,87,0.1484375
1484129555.08753,90,0.1171875
1484129555.144927,91,0.125
1484129555.382826,95,0.1484375
1484129555.557379,98,0.2734375
1484129555.948925,101,0.1328125
1484129556.007272,102,0.15625
1484129556.18237,105,0.1640625
1484129556.239948,106,0.2578125
1484129556.297572,107,0.203125
1484129556.354537,108,0.1171875
1484129556.701526,114,0.1328125
1484129556.822529,116,0.1328125
1484129557.385459,122,0.203125
1484129557.442567,123,0.2578125
1484129557.499293,124,0.1953125
1484129557.629457,126,0.140625
1484129557.80333,129,0.1171875
1484129557.976244,132,0.0625
1484129558.0354,133,0.109375
1484129558.152532,135,0.109375
1484129558.327757,138,0.1640625
1484129558.386104,139,0.203125
1484129558.44536,140,0.1875
1484129558.790707,142,0.171875
1484129559.072702,146,0.375
1484129559.129985,147,0.2890625
1484129559.65116,155,0.2578125
1484129559.882807,159,0.359375
1484129559.940546,160,0.3984375
1484129560.209392,161,0.3359375
1484129560.500197,166,0.1875
1484129560.558331,167,0.3828125
1484129560.733416,170,0.2578125
1484129560.962611,174,0.328125
1484129561.020966,175,0.3359375
1484129561.0768,176,0.3515625
1484129561.306362,180,0.3671875
1484129561.576545,181,0.3125
1484129561.635646,182,0.34375
1484129561.750684,184,0.34375
1484129561.80869,185,0.34375
1484129561.86752,186,0.3828125
1484129561.924792,187,0.3125
1484129561.982776,188,0.3125
1484129562.041224,189,0.28125
1484129562.215162,192,0.2578125
1484129562.272271,193,0.2890625
1484129562.330012,194,0.3515625
1484129562.561211,198,0.3671875
1484129562.61875,199,0.390625
1484129562.675067,200,0.3984375
1484129562.948009,201,0.390625
1484129563.126374,204,0.3359375
1484129563.18558,205,0.3984375
1484129563.301261,207,0.3984375
1484129563.477874,210,0.34375
1484129563.554165,211,0.3203125
1484129563.782503,215,0.4296875
1484129563.972438,218,0.421875
1484129564.030375,219,0.4296875
1484129564.08609,220,0.375
1484129564.350459,221,0.40625
1484129564.407967,222,0.4765625
1484129564.465615,223,0.390625
1484129564.522386,224,0.34375
1484129564.724356,227,0.390625
1484129564.838076,229,0.421875
1484129564.895385,230,0.46875
1484129565.066037,233,0.40625
1484129565.178183,235,0.3359375
1484129565.235797,236,0.3671875
1484129565.293887,237,0.40625
1484129565.351935,238,0.40625
1484129565.735157,241,0.4140625
1484129565.793448,242,0.4375
1484129565.969105,245,0.4296875
1484129566.086236,247,0.421875
1484129566.318704,251,0.40625
1484129566.448078,253,0.375
1484129566.857214,260,0.484375
1484129567.181413,262,0.390625
1484129567.295134,264,0.421875
1484129567.869,274,0.3515625
1484129567.926408,275,0.375
1484129568.039701,277,0.4140625
1484129568.097092,278,0.421875
1484129568.211084,280,0.4296875
1484129568.481622,281,0.375
1484129568.65652,284,0.4296875
1484129568.714291,285,0.46875
1484129568.832781,287,0.3671875
1484129568.890747,288,0.46875
1484129569.078995,291,0.34375
1484129569.136889,292,0.3671875
1484129569.19621,293,0.3515625
1484129569.252591,294,0.4140625
1484129569.309947,295,0.4453125
1484129569.368203,296,0.4375
1484129569.426627,297,0.4296875
1484129569.493399,298,0.4375
1484129569.551449,299,0.3671875
1484129569.607744,300,0.4375
1484129569.939155,302,0.328125
1484129570.05463,304,0.359375
1484129570.423487,310,0.4453125
1484129570.538154,312,0.34375
1484129570.595816,313,0.5
1484129570.655184,314,0.5234375
1484129570.771815,316,0.4140625
1484129570.945794,319,0.3828125
1484129571.326536,322,0.421875
1484129571.499192,325,0.4140625
1484129571.676262,328,0.4453125
1484129571.790268,330,0.3046875
1484129571.849049,331,0.515625
1484129572.043235,334,0.375
1484129572.102188,335,0.4140625
1484129572.279987,338,0.3671875
1484129572.338454,339,0.3671875
1484129572.396821,340,0.4375
1484129572.661824,341,0.4453125
1484129572.718797,342,0.34375
1484129572.776564,343,0.4296875
1484129572.833513,344,0.4296875
1484129572.892233,345,0.4140625
1484129573.006681,347,0.34375
1484129573.066555,348,0.34375
1484129573.182912,350,0.3828125
1484129573.410082,354,0.40625
1484129573.523403,356,0.34375
1484129573.583112,357,0.375
1484129573.696842,359,0.375
1484129573.75491,360,0.234375
1484129574.089999,362,0.3046875
1484129574.204761,364,0.40625
1484129574.317419,366,0.3671875
1484129574.373132,367,0.390625
1484129574.429713,368,0.3046875
1484129574.487151,369,0.3515625
1484129574.600137,371,0.3359375
1484129574.830272,375,0.2734375
1484129575.061559,379,0.3515625
1484129575.118671,380,0.375
1484129575.438113,382,0.40625
1484129575.494686,383,0.2890625
1484129575.554804,384,0.453125
1484129575.612141,385,0.453125
1484129575.668488,386,0.3984375
1484129575.727294,387,0.390625
1484129576.013968,392,0.4453125
1484129576.127305,394,0.453125
1484129576.295806,397,0.3984375
1484129576.352579,398,0.3984375
1484129576.465531,400,0.34375
1484129576.732459,401,0.390625
1484129576.790225,402,0.390625
1484129576.905154,404,0.421875
1484129576.961382,405,0.3828125
1484129577.020348,406,0.4375
1484129577.195676,409,0.4140625
1484129577.31635,411,0.5078125
1484129577.546699,415,0.4140625
1484129577.606597,416,0.4609375
1484129577.720705,418,0.4453125
1484129578.166307,422,0.3984375
1484129578.281106,424,0.4453125
1484129578.33901,425,0.4765625
1484129578.394888,426,0.5390625
1484129578.566573,429,0.5390625
1484129578.681318,431,0.46875
1484129578.795272,433,0.5
1484129578.853097,434,0.6328125
1484129578.910491,435,0.5703125
1484129578.987333,436,0.5390625
1484129579.104071,438,0.5234375
1484129579.218069,440,0.453125
1484129579.601515,443,0.6015625
1484129579.682579,444,0.59375
1484129579.797073,446,0.65625
1484129579.855883,447,0.578125
1484129579.972489,449,0.5234375
1484129580.144763,452,0.6015625
1484129580.260942,454,0.6328125
1484129580.316126,455,0.5703125
1484129580.371713,456,0.5625
1484129580.428051,457,0.625
1484129580.605983,460,0.5625
1484129581.098576,465,0.703125
1484129581.156272,466,0.796875
1484129581.212095,467,0.6953125
1484129581.452645,471,0.6953125
1484129581.511292,472,0.7890625
1484129581.568164,473,0.7421875
1484129581.738682,476,0.7109375
1484129581.794433,477,0.6484375
1484129581.849776,478,0.640625
1484129582.232159,481,0.7734375
1484129582.28833,482,0.7265625
1484129582.345165,483,0.609375
1484129582.516207,486,0.609375
1484129582.572338,487,0.609375
1484129582.629879,488,0.6640625
1484129582.745774,490,0.765625
1484129582.858507,492,0.71875
1484129582.915671,493,0.734375
1484129583.090076,496,0.7421875
1484129583.205962,498,0.6953125
1484129583.262292,499,0.7265625
1484129583.322064,500,0.734375
1484129583.719846,503,0.7890625
1484129583.776656,504,0.75
1484129583.890414,506,0.6875
1484129584.07096,509,0.640625
1484129584.241573,512,0.765625
1484129584.299451,513,0.71875
1484129584.35531,514,0.8125
1484129584.527905,517,0.7265625
1484129584.585345,518,0.75
1484129584.642486,519,0.7109375
1484129584.699168,520,0.671875
1484129584.964054,521,0.7578125
1484129585.018692,522,0.703125
1484129585.07698,523,0.765625
1484129585.135669,524,0.75
1484129585.192103,525,0.7109375
1484129585.478239,530,0.6953125
1484129585.536028,531,0.7265625
1484129585.708669,534,0.7421875
1484129585.820992,536,0.7109375
1484129585.99627,539,0.796875
1484129586.32211,541,0.75
1484129586.435532,543,0.8203125
1484129586.608619,546,0.84375
1484129586.722122,548,0.8828125
1484129586.77981,549,0.8828125
1484129586.857319,550,0.7890625
1484129586.916976,551,0.8671875
1484129586.972532,552,0.8515625
1484129587.028246,553,0.8359375
1484129587.201146,556,0.765625
1484129587.365461,558,0.8515625
1484129587.454504,559,0.8671875
1484129587.834785,562,0.8515625
1484129587.892698,563,0.859375
1484129588.063927,566,0.8125
1484129588.349556,571,0.8203125
1484129588.464454,573,0.8125
1484129588.637232,576,0.75
1484129588.694074,577,0.859375
1484129588.80995,579,0.7890625
1484129588.867538,580,0.765625
1484129589.134249,581,0.8828125
1484129589.362121,585,0.859375
1484129589.420012,586,0.84375
1484129589.534026,588,0.78125
1484129589.705528,591,0.828125
1484129589.762578,592,0.8046875
1484129589.877274,594,0.8046875
1484129590.049316,597,0.7890625
1484129590.104915,598,0.75
1484129590.162643,599,0.7890625
1484129590.481151,601,0.7890625
1484129590.538487,602,0.7265625
1484129590.653527,604,0.7578125
1484129590.713144,605,0.7421875
1484129590.770985,606,0.796875
1484129590.827427,607,0.75
1484129591.057755,611,0.828125
1484129591.115876,612,0.796875
1484129591.229546,614,0.8359375
1484129591.288518,615,0.7578125
1484129591.904125,622,0.84375
1484129592.189773,627,0.7890625
1484129592.246293,628,0.875
1484129592.360073,630,0.8046875
1484129592.649388,635,0.859375
1484129592.761863,637,0.90625
1484129592.877018,639,0.9375
1484129593.197839,641,0.8359375
1484129593.311178,643,0.890625
1484129593.368083,644,0.84375
1484129593.538048,647,0.8984375
1484129593.663485,649,0.84375
1484129593.800571,651,0.8671875
1484129593.973489,654,0.8828125
1484129594.030639,655,0.859375
1484129594.148607,657,0.8203125
1484129594.265236,659,0.859375
1484129594.323292,660,0.8203125
1484129594.640653,662,0.859375
1484129594.698788,663,0.8515625
1484129594.756487,664,0.890625
1484129594.870209,666,0.859375
1484129594.985747,668,0.875
1484129595.042699,669,0.890625
1484129595.120722,670,0.8828125
1484129595.177503,671,0.859375
1484129595.460345,676,0.828125
1484129595.630394,679,0.8984375
1484129596.009145,682,0.875
1484129596.12461,684,0.828125
1484129596.182584,685,0.8828125
1484129596.3015,687,0.859375
1484129596.416462,689,0.8203125
1484129596.473509,690,0.828125
1484129596.529643,691,0.890625
1484129596.700999,694,0.8984375
1484129596.755976,695,0.90625
1484129596.813601,696,0.921875
1484129596.870766,697,0.8828125
1484129596.929457,698,0.875
1484129597.041967,700,0.875
1484129597.476962,704,0.875
1484129597.533185,705,0.9140625
1484129597.650344,707,0.8515625
1484129597.705001,708,0.8828125
1484129597.763172,709,0.9296875
1484129597.821657,710,0.9609375
1484129598.049817,714,0.890625
1484129598.221657,717,0.84375
1484129598.661403,721,0.8828125
1484129598.776626,723,0.90625
1484129598.82972,724,0.96875
1484129598.888877,725,0.859375
1484129598.94556,726,0.921875
1484129599.002751,727,0.9296875
1484129599.117302,729,0.9140625
1484129599.238232,731,0.9140625
1484129599.352286,733,0.9296875
1484129599.408512,734,0.890625
1484129599.577968,737,0.90625
1484129599.634348,738,0.9140625
1484129599.745991,740,0.9375
1484129600.004322,741,0.921875
1484129600.062296,742,0.9375
1484129600.175491,744,0.9453125
1484129600.232683,745,0.875
1484129600.288894,746,0.890625
1484129600.573173,751,0.890625
1484129600.745675,754,0.9296875
1484129600.858513,756,0.921875
1484129600.973342,758,0.90625
1484129601.094438,760,0.890625
1484129601.413285,762,0.875
1484129601.528915,764,0.9296875
1484129601.700209,767,0.9296875
1484129601.757775,768,0.9375
1484129601.87032,770,0.921875
1484129601.983945,772,0.8828125
1484129602.266731,777,0.890625
1484129602.748511,782,0.859375
1484129602.919683,785,0.9296875
1484129603.169471,789,0.921875
1484129603.226378,790,0.890625
1484129603.396612,793,0.8984375
1484129603.682816,798,0.90625
1484129603.739785,799,0.90625
1484129604.178298,803,0.9453125
1484129604.235658,804,0.8828125
1484129604.521468,809,0.9296875
1484129604.578895,810,0.890625
1484129604.808853,814,0.921875
1484129604.866021,815,0.9140625
1484129605.11448,819,0.90625
1484129605.430327,821,0.96875
1484129605.487291,822,0.9296875
1484129605.543303,823,0.9375
1484129605.713192,826,0.921875
1484129605.797574,827,0.9296875
1484129605.854696,828,0.9609375
1484129605.912926,829,0.9296875
1484129606.024482,831,0.953125
1484129606.137864,833,0.9296875
1484129606.253205,835,0.9375
1484129606.308698,836,0.9453125
1484129606.79881,841,0.9140625
1484129606.910358,843,0.9296875
1484129607.084404,846,0.9375
1484129607.198855,848,0.9140625
1484129607.257163,849,0.9296875
1484129607.313263,850,0.921875
1484129607.482504,853,0.953125
1484129607.539126,854,0.9609375
1484129607.596044,855,0.9609375
1484129607.65355,856,0.9296875
1484129607.768291,858,0.953125
1484129607.823664,859,0.9921875
1484129607.880802,860,0.9375
1484129608.26387,863,0.96875
1484129608.377612,865,0.96875
1484129608.433614,866,0.9375
1484129608.490408,867,0.953125
1484129608.548406,868,0.9296875
1484129608.603745,869,0.96875
1484129608.658742,870,0.9609375
1484129608.713471,871,0.890625
1484129608.826928,873,0.9140625
1484129608.88438,874,0.96875
1484129608.998843,876,0.8984375
1484129609.058228,877,0.953125
1484129609.11505,878,0.9609375
1484129609.233031,880,0.9375
1484129609.630903,883,0.96875
1484129609.697264,884,0.9296875
1484129609.808332,886,0.9609375
1484129609.922183,888,0.9140625
1484129610.037237,890,0.921875
1484129610.093317,891,0.9140625
1484129610.332915,895,0.953125
1484129610.557749,899,0.9453125
1484129610.614205,900,0.96875
1484129610.889159,901,0.9609375
1484129610.944954,902,0.953125
1484129611.059678,904,0.90625
1484129611.575548,913,0.9296875
1484129611.630608,914,0.96875
1484129611.800122,917,0.9609375
1484129611.911767,919,0.9375
1484129611.968591,920,0.9609375
1484129612.228166,921,0.9375
1484129612.283947,922,0.9609375
1484129612.340204,923,0.96875
1484129612.562969,927,0.9921875
1484129612.676066,929,0.9609375
1484129612.733403,930,0.953125
1484129612.804671,931,0.9765625
1484129612.882455,932,0.96875
1484129612.994818,934,0.9921875
1484129613.127128,936,0.9609375
1484129613.363697,940,0.96875
1484129613.682321,942,0.9765625
1484129613.852853,945,0.9453125
1484129613.91057,946,0.96875
1484129613.966089,947,0.953125
1484129614.192549,951,0.9765625
1484129614.414407,955,0.9765625
1484129614.949341,961,0.9453125
1484129615.004602,962,0.9296875
1484129615.062475,963,0.984375
1484129615.175664,965,0.96875
1484129615.287602,967,0.9765625
1484129615.457433,970,0.9765625
1484129615.683686,974,0.9453125
1484129615.794534,976,0.9453125
1484129615.851435,977,0.9609375
1484129615.907271,978,0.9453125
1484129615.96353,979,0.96875
1484129616.339907,982,0.9609375
1484129616.396403,983,0.96875
1484129616.451752,984,0.9609375
1484129616.617167,987,0.9609375
1484129616.785589,990,0.96875
1484129616.842758,991,0.9453125
1484129617.012317,994,0.96875
1484129617.0695,995,0.9609375
1484129617.715366,1003,0.984375
1484129617.772581,1004,0.9921875
1484129617.846319,1005,0.9765625
1484129617.902589,1006,0.96875
1484129618.014438,1008,0.984375
1484129618.130025,1010,0.9765625
1484129618.185725,1011,0.9609375
1484129618.24157,1012,0.96875
1484129619.012516,1022,0.953125
1484129619.183177,1025,0.953125
1484129619.239523,1026,0.96875
1484129619.577484,1032,0.96875
1484129619.633611,1033,0.9609375
1484129619.802046,1036,0.96875
1484129619.859329,1037,0.9453125
1484129620.029455,1040,0.96875
1484129620.286958,1041,0.953125
1484129620.399415,1043,0.9609375
1484129620.510232,1045,0.984375
1484129620.566154,1046,0.9921875
1484129620.882964,1051,0.96875
1484129620.940037,1052,0.984375
1484129620.996076,1053,0.984375
1484129621.052462,1054,1.0
1484129621.107956,1055,0.96875
1484129621.163758,1056,0.984375
1484129621.220453,1057,0.96875
1484129621.275607,1058,0.953125
1484129621.388564,1060,1.0
1484129621.697141,1062,0.9765625
1484129621.75309,1063,0.9609375
1484129621.808489,1064,0.9921875
1484129621.864467,1065,0.953125
1484129622.088168,1069,0.96875
1484129622.143566,1070,0.9921875
1484129622.198689,1071,0.9765625
1484129622.255658,1072,0.96875
1484129622.311443,1073,0.96875
1484129622.422413,1075,0.9609375
1484129622.96049,1081,0.9765625
1484129623.125114,1084,0.96875
1484129623.180026,1085,0.9609375
1484129623.234521,1086,0.984375
1484129623.291756,1087,0.9609375
1484129623.348891,1088,0.9765625
1484129623.460809,1090,0.9921875
1484129623.79487,1096,0.9765625
1484129623.906569,1098,0.96875
1484129623.960824,1099,0.9765625
1484129624.419935,1103,0.984375
1484129624.596062,1106,0.9609375
1484129624.706117,1108,0.96875
1484129624.761675,1109,0.984375
1484129625.041521,1114,0.9765625
1484129625.097299,1115,0.9921875
1484129625.152884,1116,0.984375
1484129625.265996,1118,0.984375
1484129625.321966,1119,0.984375
1484129625.636978,1121,0.9921875
1484129625.748898,1123,0.96875
1484129626.081714,1129,0.9765625
1484129626.199414,1131,0.9921875
1484129626.310314,1133,0.9921875
1484129626.479702,1136,0.984375
1484129626.676744,1139,0.9765625
1484129626.988768,1141,0.9765625
1484129627.099902,1143,1.0
1484129627.154623,1144,0.96875
1484129627.264524,1146,0.9765625
1484129627.378259,1148,0.953125
1484129627.547094,1151,0.9609375
1484129627.603405,1152,0.9765625
1484129627.661425,1153,0.984375
1484129627.717671,1154,1.0
1484129627.772626,1155,0.9921875
1484129627.828901,1156,0.984375
1484129627.885276,1157,0.96875
1484129627.939521,1158,0.9609375
1484129628.049104,1160,0.9921875
1484129628.47444,1164,0.9765625
1484129628.530012,1165,0.9921875
1484129628.586071,1166,0.9921875
1484129628.642485,1167,0.9765625
1484129628.698653,1168,0.984375
1484129628.754447,1169,0.96875
1484129628.810634,1170,0.9921875
1484129628.868353,1171,0.96875
1484129628.92455,1172,0.984375
1484129628.979807,1173,0.96875
1484129629.091104,1175,0.9609375
1484129629.152486,1176,1.0
1484129629.208702,1177,0.984375
1484129629.635213,1181,1.0
1484129629.745777,1183,0.9921875
1484129629.800705,1184,0.9765625
1484129629.855787,1185,0.9765625
1484129629.965902,1187,0.9765625
1484129630.136609,1190,1.0
1484129630.360017,1194,0.96875
1484129630.469416,1196,0.953125
1484129630.69442,1200,0.9765625
1484129630.952224,1201,0.9921875
1484129631.007468,1202,0.96875
1484129631.118837,1204,0.9765625
1484129631.176369,1205,0.9921875
1484129631.400745,1209,0.9921875
1484129631.455641,1210,0.9921875
1484129631.56647,1212,0.9765625
1484129631.623186,1213,0.984375
1484129631.735408,1215,1.0
1484129631.791288,1216,0.984375
1484129632.039024,1220,0.984375
1484129632.294043,1221,0.9765625
1484129632.350967,1222,0.984375
1484129632.405149,1223,0.984375
1484129632.459331,1224,0.9921875
1484129632.572401,1226,0.96875
1484129632.9818,1233,0.984375
1484129633.202136,1237,0.9765625
1484129633.31109,1239,1.0
1484129633.623885,1241,1.0
1484129633.679852,1242,0.984375
1484129633.735949,1243,0.96875
1484129633.956445,1247,0.9375
1484129634.027816,1248,0.9765625
1484129634.083567,1249,0.9921875
1484129634.142216,1250,0.9609375
1484129634.365987,1254,0.984375
1484129634.421386,1255,0.9921875
1484129634.534476,1257,1.0
1484129634.590172,1258,0.9921875
1484129634.957183,1261,0.984375
1484129635.01222,1262,0.9921875
1484129635.122679,1264,0.96875
1484129635.233487,1266,0.984375
1484129635.289668,1267,0.9921875
1484129635.4031,1269,0.96875
1484129635.568332,1272,0.9765625
1484129635.623669,1273,0.9921875
1484129635.735202,1275,0.9765625
1484129635.790599,1276,0.984375
1484129635.956448,1279,0.984375
1484129636.011123,1280,0.984375
1484129636.271916,1281,0.9921875
1484129636.43863,1284,0.9921875
1484129636.495472,1285,0.9921875
1484129636.606892,1287,0.96875
1484129636.662247,1288,0.9765625
1484129637.103045,1296,0.984375
1484129637.576376,1301,1.0
1484129637.631629,1302,1.0
1484129637.740532,1304,0.9765625
1484129637.907202,1307,1.0
1484129638.015781,1309,0.9921875
1484129638.071059,1310,0.984375
1484129638.179859,1312,0.984375
1484129638.234274,1313,0.9921875
1484129638.288761,1314,0.9921875
1484129638.397618,1316,0.984375
1484129638.452836,1317,0.984375
1484129638.87382,1321,1.0
1484129638.928415,1322,1.0
1484129638.985694,1323,0.9921875
1484129639.094628,1325,0.984375
1484129639.206211,1327,0.9609375
1484129639.260465,1328,0.984375
1484129639.427594,1331,0.9921875
1484129639.484266,1332,0.9921875
1484129639.65612,1335,1.0
1484129639.710272,1336,1.0
1484129639.763489,1337,0.96875
1484129639.873881,1339,0.9921875
1484129640.239591,1342,0.9765625
1484129640.350352,1344,0.9765625
1484129640.572933,1348,0.984375
1484129640.629908,1349,1.0
1484129640.741454,1351,0.9921875
1484129640.850379,1353,0.984375
1484129640.905558,1354,1.0
1484129641.182129,1359,0.9921875
1484129641.658706,1364,1.0
1484129641.713724,1365,1.0
1484129641.825647,1367,0.9765625
1484129641.882114,1368,0.9921875
1484129641.990983,1370,0.9765625
1484129642.155469,1373,0.9765625
1484129642.2658,1375,0.9765625
1484129642.321189,1376,0.9765625
1484129642.542494,1380,0.9921875
1484129642.851909,1382,0.984375
1484129642.961786,1384,0.96875
1484129643.293267,1390,0.96875
1484129643.402058,1392,0.984375
1484129643.512511,1394,0.9921875
1484129644.101901,1401,0.984375
1484129644.158254,1402,0.984375
1484129644.214279,1403,1.0
1484129644.268602,1404,0.9921875
1484129644.492749,1408,1.0
1484129644.549433,1409,0.984375
1484129644.723486,1412,1.0
1484129644.77831,1413,0.96875
1484129644.834465,1414,0.9765625
1484129644.946968,1416,0.9765625
1484129645.003855,1417,0.984375
1484129645.061965,1418,1.0
1484129645.116978,1419,0.984375
1484129645.479939,1422,0.9765625
1484129645.53482,1423,0.984375
1484129645.64411,1425,0.984375
1484129645.698652,1426,1.0
1484129645.809395,1428,0.96875
1484129645.863606,1429,0.9765625
1484129646.028551,1432,1.0
1484129646.13894,1434,0.9921875
1484129646.193196,1435,0.984375
1484129646.41228,1439,0.9609375
1484129646.779971,1442,0.984375
1484129646.833997,1443,0.9765625
1484129646.88849,1444,1.0
1484129647.001787,1446,0.9921875
1484129647.056465,1447,0.9921875
1484129647.471057,1454,1.0
1484129647.689844,1458,0.984375
1484129647.800548,1460,1.0
1484129648.109141,1462,0.9765625
1484129648.21769,1464,0.984375
1484129648.272519,1465,1.0
1484129648.381918,1467,0.9921875
1484129648.547055,1470,0.984375
1484129648.601421,1471,0.984375
1484129648.655024,1472,0.9921875
1484129648.708526,1473,0.9921875
1484129648.982581,1478,1.0
1484129649.036147,1479,0.9921875
1484129649.090684,1480,0.9921875
1484129649.343294,1481,0.9921875
1484129649.564058,1485,1.0
1484129649.618505,1486,1.0
1484129649.781412,1489,1.0
1484129649.834828,1490,0.9921875
1484129649.942174,1492,0.9921875
1484129650.280624,1498,0.9921875
1484129650.337309,1499,0.984375
1484129650.390561,1500,1.0
1484129650.810167,1504,0.9765625
1484129650.972675,1507,0.984375
1484129651.192418,1511,0.9921875
1484129651.249858,1512,0.9921875
1484129651.305498,1513,0.96875
1484129651.359946,1514,0.9765625
1484129651.529028,1517,0.9765625
1484129651.583881,1518,0.96875
1484129651.693942,1520,0.9921875
1484129652.005679,1522,1.0
1484129652.335752,1528,0.9765625
1484129652.445256,1530,1.0
1484129652.499137,1531,1.0
1484129652.552752,1532,1.0
1484129652.771255,1536,0.9921875
1484129652.825416,1537,0.9921875
1484129652.935262,1539,1.0
1484129653.243725,1541,0.984375
1484129653.29842,1542,0.984375
1484129653.352655,1543,1.0
1484129653.406332,1544,0.984375
1484129653.461477,1545,0.984375
1484129653.516585,1546,1.0
1484129653.573592,1547,0.9921875
1484129653.68035,1549,0.9765625
1484129653.734417,1550,0.984375
1484129653.949811,1554,0.9921875
1484129654.060036,1556,1.0
1484129654.167557,1558,0.984375
1484129654.276829,1560,0.984375
1484129654.528509,1561,1.0
1484129654.583314,1562,0.9921875
1484129654.807351,1566,0.984375
1484129655.024589,1570,0.9921875
1484129655.243896,1574,0.9765625
1484129655.297804,1575,0.9921875
1484129655.406451,1577,0.984375
1484129655.462025,1578,0.984375
1484129655.570585,1580,0.984375
1484129655.824799,1581,1.0
1484129655.88073,1582,0.984375
1484129655.99138,1584,0.9921875
1484129656.046338,1585,1.0
1484129656.100815,1586,1.0
1484129656.26203,1589,0.984375
1484129656.431939,1592,0.9921875
1484129656.592836,1595,0.9921875
1484129656.704585,1597,0.984375
1484129656.813097,1599,0.984375
1484129657.122393,1601,0.9765625
1484129657.177285,1602,0.9765625
1484129657.23354,1603,0.984375
1484129657.292534,1604,0.984375
1484129657.400989,1606,0.9921875
1484129657.455092,1607,0.9765625
1484129657.509013,1608,1.0
1484129657.670137,1611,0.9921875
1484129657.726815,1612,1.0
1484129657.83959,1614,0.984375
1484129657.893537,1615,0.9921875
1484129657.947332,1616,0.984375
1484129658.000955,1617,0.9921875
1484129658.125593,1619,0.9921875
1484129658.183852,1620,0.9765625
1484129658.444779,1621,0.984375
1484129658.498908,1622,0.9921875
1484129658.553007,1623,0.984375
1484129658.661917,1625,0.9921875
1484129658.717194,1626,0.9921875
1484129658.829116,1628,0.9765625
1484129658.991791,1631,1.0
1484129659.047793,1632,0.9921875
1484129659.158114,1634,1.0
1484129659.266417,1636,1.0
1484129659.321491,1637,0.984375
1484129659.37644,1638,0.9921875
1484129659.48766,1640,1.0
1484129659.749689,1641,1.0
1484129659.80562,1642,0.9921875
1484129659.863864,1643,0.9921875
1484129659.971912,1645,0.9921875
1484129660.081141,1647,1.0
1484129660.135972,1648,0.984375
1484129660.35416,1652,1.0
1484129660.412958,1653,0.984375
1484129660.520038,1655,1.0
1484129660.574612,1656,1.0
1484129660.629528,1657,1.0
1484129661.103203,1662,1.0
1484129661.157701,1663,0.9921875
1484129661.483534,1669,0.9921875
1484129661.592772,1671,0.9921875
1484129661.647178,1672,0.9921875
1484129661.702032,1673,1.0
1484129661.755292,1674,0.9921875
1484129661.808391,1675,1.0
1484129661.863396,1676,0.9921875
1484129662.087926,1679,0.984375
1484129662.555234,1684,1.0
1484129662.66333,1686,0.984375
1484129662.773048,1688,0.984375
1484129662.828034,1689,0.9921875
1484129662.882074,1690,0.9921875
1484129662.991705,1692,0.984375
1484129663.045536,1693,0.9765625
1484129663.101017,1694,0.9765625
1484129663.223987,1696,1.0
1484129663.278094,1697,0.984375
1484129663.33186,1698,0.9921875
1484129663.440816,1700,0.9921875
1484129663.853542,1704,0.9921875
1484129664.01473,1707,1.0
1484129664.449228,1715,1.0
1484129664.61369,1718,0.9921875
1484129664.667159,1719,1.0
1484129664.720445,1720,0.9921875
1484129664.970418,1721,1.0
1484129665.025553,1722,1.0
1484129665.349966,1728,0.984375
1484129665.458984,1730,1.0
1484129665.567237,1732,1.0
1484129665.730238,1735,0.9921875
1484129665.782951,1736,0.9921875
1484129665.836564,1737,0.9921875
1484129665.890161,1738,1.0
1484129665.945115,1739,0.984375
1484129666.016189,1740,1.0
1484129666.267814,1741,0.9921875
1484129666.322873,1742,1.0
1484129666.377509,1743,1.0
1484129666.432884,1744,0.984375
1484129666.595676,1747,1.0
1484129666.703232,1749,0.9921875
1484129666.756424,1750,1.0
1484129666.974269,1754,1.0
1484129667.028184,1755,1.0
1484129667.140251,1757,0.9765625
1484129667.301404,1760,0.9765625
1484129667.551117,1761,1.0
1484129667.605284,1762,0.9921875
1484129667.658215,1763,0.984375
1484129667.767722,1765,1.0
1484129667.876831,1767,1.0
1484129667.930481,1768,1.0
1484129668.150006,1772,0.9921875
1484129668.203113,1773,0.9921875
1484129668.268658,1774,1.0
1484129668.322384,1775,1.0
1484129668.48493,1778,0.9921875
1484129668.540732,1779,0.9765625
1484129668.594047,1780,1.0
1484129668.844801,1781,0.9921875
1484129668.898171,1782,0.984375
1484129668.952343,1783,1.0
1484129669.062798,1785,1.0
1484129669.171388,1787,1.0
1484129669.225076,1788,0.9921875
1484129669.279191,1789,1.0
1484129669.331922,1790,1.0
1484129669.44005,1792,1.0
1484129669.548833,1794,1.0
1484129669.604536,1795,0.984375
1484129669.819798,1799,0.9921875
1484129670.141469,1801,1.0
1484129670.250592,1803,0.9921875
1484129670.358249,1805,0.984375
1484129670.576331,1809,0.9921875
1484129670.747162,1811,0.984375
1484129670.802411,1812,0.9921875
1484129670.909699,1814,0.984375
1484129671.018999,1816,1.0
1484129671.074165,1817,1.0
1484129671.23632,1820,1.0
1484129671.53915,1822,1.0
1484129671.593148,1823,1.0
1484129671.64752,1824,0.9921875
1484129671.75576,1826,0.984375
1484129671.8086,1827,1.0
1484129672.132769,1833,1.0
1484129672.350083,1837,0.984375
1484129672.76222,1841,1.0
1484129672.869533,1843,1.0
1484129672.922354,1844,1.0
1484129672.978094,1845,0.9765625
1484129673.032862,1846,0.9921875
1484129673.088173,1847,0.9921875
1484129673.252463,1850,0.9921875
1484129673.361421,1852,0.9921875
1484129673.415558,1853,0.9765625
1484129673.523211,1855,0.9921875
1484129673.794957,1860,1.0
1484129674.043293,1861,0.9921875
1484129674.10019,1862,0.984375
1484129674.261264,1865,1.0
1484129674.316059,1866,0.9921875
1484129674.481297,1869,0.96875
1484129674.590119,1871,1.0
1484129674.808029,1875,0.9921875
1484129674.86161,1876,1.0
1484129674.969627,1878,1.0
1484129675.022332,1879,1.0
1484129675.389163,1882,0.984375
1484129675.443545,1883,1.0
1484129675.551291,1885,0.9921875
1484129675.658419,1887,0.9921875
1484129675.712429,1888,1.0
1484129675.767952,1889,1.0
1484129675.823418,1890,1.0
1484129675.877201,1891,1.0
1484129676.036065,1894,1.0
1484129676.088721,1895,1.0
1484129676.142538,1896,1.0
1484129676.358286,1900,0.9921875
1484129676.607483,1901,0.9921875
1484129676.717215,1903,0.984375
1484129676.864791,1905,1.0
1484129676.917712,1906,0.9921875
1484129677.026015,1908,0.9921875
1484129677.134807,1910,0.9921875
1484129677.187745,1911,0.9921875
1484129677.348435,1914,0.9921875
1484129677.509811,1917,0.9921875
1484129677.669802,1920,1.0
1484129677.916712,1921,1.0
1484129678.131808,1925,1.0
1484129678.185738,1926,0.9921875
1484129678.294322,1928,0.9921875
1484129678.465403,1931,1.0
1484129678.572284,1933,0.9921875
1484129678.627759,1934,0.9921875
1484129678.680886,1935,1.0
1484129678.74444,1936,0.9921875
1484129678.797119,1937,0.9921875
1484129678.850676,1938,1.0
1484129678.958489,1940,0.9921875
1484129679.212229,1941,0.9921875
1484129679.26486,1942,0.9921875
1484129679.317995,1943,1.0
1484129679.37198,1944,0.984375
1484129679.691552,1950,1.0
1484129679.802192,1952,1.0
1484129679.909969,1954,0.9921875
1484129679.963185,1955,1.0
1484129680.017427,1956,1.0
1484129680.124345,1958,0.9921875
1484129680.53569,1962,1.0
1484129680.64209,1964,1.0
1484129680.748662,1966,0.9765625
1484129680.908298,1969,0.9921875
1484129681.015127,1971,0.984375
1484129681.33901,1977,1.0
1484129681.501133,1980,1.0
1484129681.802769,1982,0.9921875
1484129682.015178,1986,0.984375
1484129682.123453,1988,1.0
1484129682.339528,1992,1.0
1484129682.393057,1993,1.0
1484129682.446732,1994,0.9921875
1484129682.500166,1995,1.0
1484129682.659682,1998,1.0
1484129682.713602,1999,1.0
