0.699301 0.531915 0.477064 0.66055 0.28866 0.767677 0.568807 0.568807 0.66055 0.636364
0.650794 0.482759 0.644068 0.348837 0.269231 0.71028 0.683333 0.515464 0.306306 0.329412
0.764706 0.72381 0.540541 0.736842 0.684685 0.807692 0.550459 0.678571 0.410256 0.673077
    0.5 0.446602 0.317757 0.291667 0.40404     0.4 0.486486 0.363636 0.342342  0.1875
0.879518 0.355556 0.736842 0.671875 0.739496 0.825688 0.77037 0.704918 0.314815 0.780488
0.914634 0.766667 0.715447 0.654206 0.861314 0.82243 0.728682 0.815385 0.682927 0.816667
0.738255 0.421053 0.692913 0.297872 0.596491 0.701031 0.722222     0.5 0.517241 0.469388
0.215054 0.210526 0.212766 0.108696 0.247191 0.461538 0.196078 0.155844 0.285714 0.278481
0.588235 0.529412    0.55 0.689655 0.727273 0.719298 0.736111 0.80303 0.694215 0.69697
0.691729 0.659794    0.64 0.850394 0.809524 0.803922 0.744186 0.587156 0.333333 0.741379
